…
``` r
dealer_weighted <- iterake(dealer_data, dealer_uni)
#> 
#> -- iterake summary -------------------------------------------------------------
#>  Convergence: Success
#>   Iterations: 13
#> 
#> Unweighted N: 400.00
#>  Effective N: 381.09
#>   Weighted N: 400.00
#>   Efficiency: 95.3%
#>         Loss: 0.05

dealer_weighted
#> # A tibble: 400 x 5
#>    Sales_ID Age    Year Type  weight
#>       <int> <chr> <dbl> <chr>  <dbl>
#>  1     4349 35-54  2016 SUV    1.15 
#>  2     1394 55+    2017 Car    1.01 
#>  3     7385 35-54  2017 SUV    0.841
#>  4     6917 18-34  2017 Car    0.694
#>  5     3247 55+    2017 SUV    0.862
#>  6     3698 18-34  2017 SUV    0.594
#>  7     6260 35-54  2018 SUV    0.792
#>  8     3998 55+    2015 Car    1.31 
#>  9     6593 18-34  2016 SUV    0.812
#> 10     5907 35-54  2017 Car    0.982
#> # ... with 390 more rows
```
…
